<?xml version="1.0" standalone="no"?>
<!DOCTYPE svg PUBLIC "-//W3C//DTD SVG 20010904//EN"
 "http://www.w3.org/TR/2001/REC-SVG-20010904/DTD/svg10.dtd">
<svg version="1.0" xmlns="http://www.w3.org/2000/svg"
 width="310.000000pt" height="310.000000pt" viewBox="0 0 310.000000 310.000000"
 preserveAspectRatio="xMidYMid meet">
<metadata>
Created by potrace 1.11, written by Peter Selinger 2001-2013
</metadata>
<g transform="translate(0.000000,310.000000) scale(0.100000,-0.100000)"
fill="#000000" stroke="none">
<path d="M2930 2365 c-10 -12 -10 -19 -2 -27 7 -7 12 -28 12 -48 0 -35 1 -35
39 -35 27 0 37 3 34 12 -3 7 5 26 17 43 17 23 20 34 11 43 -8 8 -11 7 -11 -6
0 -20 -15 -23 -26 -5 -4 6 -2 14 4 16 7 2 12 8 12 13 0 15 -77 10 -90 -6z"/>
<path d="M3060 2286 c0 -20 -4 -36 -9 -36 -5 0 -23 -13 -41 -30 -26 -25 -29
-30 -13 -30 25 0 63 28 63 46 0 8 5 14 10 14 6 0 10 13 10 29 0 17 -4 33 -10
36 -6 4 -10 -8 -10 -29z"/>
<path d="M1472 2274 c-178 -48 -290 -161 -323 -327 -23 -113 29 -206 144 -261
52 -24 233 -76 268 -76 8 0 26 -11 39 -25 50 -53 -8 -110 -110 -109 -73 0
-121 25 -150 75 l-23 41 -51 -6 c-28 -4 -73 -11 -101 -16 -27 -5 -67 -12 -88
-15 -21 -3 -41 -13 -44 -22 -9 -23 23 -115 57 -161 152 -210 623 -175 793 59
33 46 67 147 67 201 0 162 -90 233 -365 288 -82 17 -115 37 -115 71 0 43 41
69 107 69 65 0 88 -10 130 -58 l31 -36 124 36 123 36 -1 31 c-4 83 -103 175
-221 206 -71 19 -221 18 -291 -1z"/>
<path d="M223 2258 c-10 -21 -18 -61 -43 -223 -5 -27 -34 -198 -65 -380 -73
-425 -71 -405 -54 -405 123 -3 219 -1 226 3 10 7 19 47 48 212 48 275 55 320
55 347 0 50 23 27 52 -53 23 -66 104 -253 175 -409 14 -30 29 -65 34 -77 8
-20 15 -22 125 -25 69 -2 123 1 131 7 8 6 18 37 23 70 5 33 21 128 35 210 26
145 31 173 54 315 6 36 24 141 40 235 22 122 27 173 19 182 -7 9 -42 13 -119
13 -93 0 -110 -2 -117 -17 -5 -10 -19 -97 -31 -193 -33 -259 -46 -333 -58
-337 -6 -2 -17 13 -24 34 -6 21 -23 63 -36 93 -14 30 -30 66 -35 80 -6 14 -17
39 -24 55 -29 69 -52 124 -79 190 -16 39 -35 76 -44 83 -10 8 -56 12 -146 12
-127 0 -132 -1 -142 -22z"/>
<path d="M2150 2264 c-12 -13 -40 -155 -69 -339 -5 -33 -28 -167 -50 -298 -23
-131 -41 -242 -41 -247 0 -20 23 -9 103 47 232 162 369 285 421 378 34 60 39
128 14 167 -25 38 -95 76 -177 96 -39 9 -71 20 -71 25 0 13 162 8 236 -8 96
-20 138 -39 189 -86 133 -123 44 -341 -274 -667 -39 -41 -71 -78 -71 -83 0
-17 65 -9 211 29 125 32 260 153 329 296 133 274 69 567 -145 661 -69 31 -204
45 -425 45 -139 0 -170 -3 -180 -16z"/>
<path d="M2934 2205 c10 -8 23 -12 29 -8 11 7 -12 23 -33 23 -12 -1 -11 -4 4
-15z"/>
</g>
</svg>
